## Interface: 11200
## LoadOnDemand: 1

## Title: |cFFFF7D0AAce |cFFFFFFFF2|r
## Notes: AddOn development framework
## Author: Ace Development Team
## X-Website: http://www.wowace.com
## X-Category: Library

AceLibrary\AceLibrary.lua
AceOO-2.0\AceOO-2.0.lua

AceEvent-2.0\AceEvent-2.0.lua
AceHook-2.0\AceHook-2.0.lua
AceHook-2.1\AceHook-2.1.lua
AceDB-2.0\AceDB-2.0.lua
AceDebug-2.0\AceDebug-2.0.lua
AceLocale-2.0\AceLocale-2.0.lua
AceLocale-2.1\AceLocale-2.1.lua
AceLocale-2.2\AceLocale-2.2.lua
AceTab-2.0\AceTab-2.0.lua
AceConsole-2.0\AceConsole-2.0.lua
AceComm-2.0\AceComm-2.0.lua
AceAddon-2.0\AceAddon-2.0.lua
AceModuleCore-2.0\AceModuleCore-2.0.lua
